{
	"mode": "modules",
	"out": "doc",
	"theme": "default",
	"ignoreCompilerErrors": "true",
	"experimentalDecorators": "true",
	"emitDecoratorMetadata": "true",
	"target": "ES6",
	"moduleResolution": "node",
	"preserveConstEnums": "true",
	"stripInternal": "true",
	"suppressExcessPropertyErrors": "true",
	"suppressImplicitAnyIndexErrors": "true",
	"module": "commonjs"
}